…
``` r
  data
```

    ## # A tibble: 169 x 8
    ##    Plot  `Seed herbivore` `Root herbivore` `No stems` Height Weight
    ##    <chr> <lgl>            <lgl>                 <dbl>  <dbl>  <dbl>
    ##  1 plot… TRUE             TRUE                      1     31   4.16
    ##  2 plot… TRUE             TRUE                      3     41   5.82
    ##  3 plot… TRUE             TRUE                      1     42   3.51
    ##  4 plot… TRUE             FALSE                     1     64   7.16
    ##  5 plot… TRUE             FALSE                     1     47   6.17
    ##  6 plot… TRUE             FALSE                     1     52   5.32
    ##  7 plot… FALSE            TRUE                      3     57  23.4 
    ##  8 plot… TRUE             TRUE                      2     27   1.76
    ##  9 plot… TRUE             TRUE                      1     40   4.01
    ## 10 plot… TRUE             TRUE                      1     33   2.58
    ## # ... with 159 more rows, and 2 more variables: `Seed heads` <dbl>, `Seeds
    ## #   in 25 heads` <dbl>

``` r
  data %>%
  select(Height, Weight)
```

    ## # A tibble: 169 x 2
    ##    Height Weight
    ##     <dbl>  <dbl>
    ##  1     31   4.16
    ##  2     41   5.82
    ##  3     42   3.51
    ##  4     64   7.16
    ##  5     47   6.17
    ##  6     52   5.32
    ##  7     57  23.4 
    ##  8     27   1.76
    ##  9     40   4.01
    ## 10     33   2.58
    ## # ... with 159 more rows
…
``` r
  data %>%
  select(Height, Weight)
```

    ## # A tibble: 169 x 2
    ##    Height Weight
    ##     <dbl>  <dbl>
    ##  1     31   4.16
    ##  2     41   5.82
    ##  3     42   3.51
    ##  4     64   7.16
    ##  5     47   6.17
    ##  6     52   5.32
    ##  7     57  23.4 
    ##  8     27   1.76
    ##  9     40   4.01
    ## 10     33   2.58
    ## # ... with 159 more rows
…
